<svg xmlns="http://www.w3.org/2000/svg" width="40" height="40" viewBox="0 0 40 40">
  <defs>
    <style>
      .cls-1 {
        fill: #fff;
        fill-rule: evenodd;
      }
    </style>
  </defs>
  <path id="bitbucket_logo" class="cls-1" d="M963.37,1104.38c-0.355,2.13-5.687,5.27-13.918,5.27s-13.562-3.12-13.918-5.27c-0.82-4.78-2.816-16.79-2.816-17.63,0-3.17,7.519-5.75,16.734-5.75,9.188,0,16.707,2.58,16.735,5.75C966.187,1087.59,964.163,1099.63,963.37,1104.38Zm-13.918,1.42a5.5,5.5,0,1,0-5.3-5.49A5.4,5.4,0,0,0,949.452,1105.8Zm0-22c-5.906,0-10.718,1.05-10.718,2.35s4.812,2.38,10.718,2.38,10.692-1.05,10.719-2.35C960.171,1084.88,955.358,1083.8,949.452,1083.8Zm0,13.73a2.747,2.747,0,1,1-2.652,2.75A2.7,2.7,0,0,1,949.452,1097.53Zm-12.058,11.64a0.724,0.724,0,0,1,.465.19s4.128,3.37,11.566,3.37,11.566-3.37,11.566-3.37a0.821,0.821,0,0,1,.465-0.19,0.491,0.491,0,0,1,.492.68v0.14c-0.629,3.54-1.093,6.03-1.175,6.42-0.547,2.64-5.469,4.59-11.4,4.59s-10.855-1.98-11.4-4.59c-0.082-.36-0.547-2.88-1.176-6.42v-0.14A0.6,0.6,0,0,1,937.394,1109.17Z" transform="translate(-929.454 -1081)"/>
</svg>
