{
  "whitelist": [
    "structure",
    "playground",
    "viewer",
    "libs",
    "marks/code",
    "marks/em",
    "marks/link",
    "marks/strike",
    "marks/strong",
    "marks/subsup",
    "marks/textColor",
    "marks/underline",
    "nodes/blockquote",
    "nodes/bulletList",
    "nodes/codeBlock",
    "nodes/doc",
    "nodes/emoji",
    "nodes/hardBreak",
    "nodes/heading",
    "nodes/listItem",
    "nodes/media",
    "nodes/mediaGroup",
    "nodes/mediaSingle",
    "nodes/mention",
    "nodes/orderedList",
    "nodes/panel",
    "nodes/paragraph",
    "nodes/rule",
    "nodes/table",
    "nodes/table_cell",
    "nodes/table_header",
    "nodes/table_row",
    "nodes/text"
  ],
  "blacklist": [
    "marks/action",
    "marks/extension_content",
    "nodes/applicationCard",
    "nodes/bodiedExtension",
    "nodes/decisionItem",
    "nodes/decisionList",
    "nodes/extension",
    "nodes/inlineExtension",
    "nodes/taskItem",
    "nodes/taskList"
  ]
}