{
  "index": [
    {
      "section": null,
      "headings": [
        {
          "name": "",
          "title": "",
          "items": [
            {
              "title": "Bamboo",
              "url": "/bamboodev"
            },
            {
              "title": "Crowd",
              "url": "/display/CROWDDEV/Developing+Plugins+for+Crowd"
            },
            {
              "title": "Fisheye and Crucible",
              "url": "/fecrudev"
            }
          ],
          "heading": null
        }
      ],
      "name": "guides",
      "title": "Product guides"
    }
  ]
}
